<?xml version="1.0" encoding="UTF-8"?>
<svg width="1440px" height="717px" viewBox="0 0 1440 717" version="1.1" xmlns="http://www.w3.org/2000/svg" xmlns:xlink="http://www.w3.org/1999/xlink">
    <!-- Generator: Sketch 56.3 (81716) - https://sketch.com -->
    <title>Pattern-B</title>
    <desc>Created with Sketch.</desc>
    <defs>
        <path d="M150.242242,315.589501 C73.9792752,321.157566 7.03624009,255.229707 0.703624009,168.350616 C-5.62899207,81.4715249 51.0436014,6.53105572 127.306569,0.975337243 C203.544847,-4.59272727 270.500227,61.335132 276.832843,148.214223" id="path-1"></path>
        <path d="M95.9274066,229.093167 C24.1824462,202.684985 -15.9364666,132.250821 6.33261608,71.779912 C28.5893545,11.321349 104.802945,-16.2720528 176.547905,10.1608211 C248.280521,36.581349 288.399434,107.015513 266.142695,167.46173" id="path-3"></path>
        <path d="M95.7915062,229.228944 C24.0342016,202.808416 -16.0723669,132.374252 6.18437146,71.9156891 C28.4534541,11.4571261 104.642356,-16.1362757 176.39966,10.2842522 C248.132276,36.7047801 288.251189,107.138944 265.994451,167.597507" id="path-5"></path>
        <path d="M167.326727,192.59827 C121.393658,225.660968 56.1541336,213.561848 21.5901472,165.56044 C-12.9738392,117.559032 -3.76500566,51.8287097 42.1557191,18.7660117 C88.0887882,-14.3090323 153.328313,-2.20991202 187.892299,45.7914956" id="path-7"></path>
        <path d="M130.034655,116.670088 C104.926387,150.411818 59.1661382,158.844164 27.8116648,135.510147 C-3.54280861,112.188475 -8.60396376,65.9155132 16.5043035,32.161437 C41.6125708,-1.58029326 87.3851642,-10.0249853 118.727293,13.3213783" id="path-9"></path>
        <polygon id="path-11" points="0 82.1544697 156.987638 161.950379 0 0.728560606"></polygon>
        <linearGradient x1="-139.067149%" y1="-47.8905002%" x2="107.386509%" y2="79.713943%" id="linearGradient-13">
            <stop stop-color="#0B0B0D" offset="0%"></stop>
            <stop stop-color="#000000" offset="100%"></stop>
        </linearGradient>
        <polygon id="path-14" points="0.0110679612 0.394586466 38.4439806 326.95188 251.951942 300.674887"></polygon>
        <linearGradient x1="63.6744467%" y1="109.595018%" x2="3.86454605%" y2="17.9547268%" id="linearGradient-16">
            <stop stop-color="#141414" offset="0%"></stop>
            <stop stop-color="#171717" offset="100%"></stop>
        </linearGradient>
        <polygon id="path-17" points="0 184.725018 156.987638 345.950356 118.454646 18.9059431 0 0.740925267"></polygon>
        <linearGradient x1="46.2924219%" y1="7.63168914%" x2="51.4080877%" y2="102.328236%" id="linearGradient-19">
            <stop stop-color="#0B0B10" offset="0%"></stop>
            <stop stop-color="#212126" offset="100%"></stop>
        </linearGradient>
        <polygon id="path-20" points="0.640330579 0.580460829 83.9202479 267.802396 148.60595 166.975115"></polygon>
        <linearGradient x1="33.2502544%" y1="78.0524269%" x2="46.7947594%" y2="40.240146%" id="linearGradient-22">
            <stop stop-color="#040404" offset="0%"></stop>
            <stop stop-color="#000000" offset="100%"></stop>
        </linearGradient>
        <polygon id="path-23" points="168.563495 33.8871721 251.951942 300.802623 0.0110679612 0.394754098"></polygon>
        <linearGradient x1="96.7468632%" y1="88.314568%" x2="26.0713049%" y2="-11.3450012%" id="linearGradient-25">
            <stop stop-color="#0D0D0B" offset="0%"></stop>
            <stop stop-color="#020201" offset="100%"></stop>
        </linearGradient>
        <polygon id="path-26" points="228.739412 0.940952381 0.84 77.0095238 398.505882 2.11714286"></polygon>
        <linearGradient x1="-0.756523981%" y1="51.0506324%" x2="99.2708769%" y2="47.4769911%" id="linearGradient-28">
            <stop stop-color="#212121" offset="0%"></stop>
            <stop stop-color="#1F1F1F" offset="100%"></stop>
        </linearGradient>
        <polygon id="path-29" points="376.974706 91.1152941 149.075294 167.011765 0.642352941 0.580588235"></polygon>
        <linearGradient x1="61.0846378%" y1="51.0716274%" x2="21.5749299%" y2="31.6411092%" id="linearGradient-31">
            <stop stop-color="#110B08" offset="0%"></stop>
            <stop stop-color="#000000" offset="100%"></stop>
        </linearGradient>
        <polygon id="path-32" points="10.6213525 0.0606666667 0.740163934 188.575667 300.259836 368.531333"></polygon>
        <linearGradient x1="72.5701113%" y1="110.201099%" x2="8.34753956%" y2="10.519424%" id="linearGradient-34">
            <stop stop-color="#2A282A" offset="0%"></stop>
            <stop stop-color="#080708" offset="100%"></stop>
        </linearGradient>
        <polygon id="path-35" points="0.852 0.753529412 65.9373913 265.118824 283.60487 272.505882"></polygon>
        <linearGradient x1="35.7667719%" y1="-4.72649083%" x2="58.9393877%" y2="84.977706%" id="linearGradient-37">
            <stop stop-color="#100E0E" offset="0%"></stop>
            <stop stop-color="#000000" offset="100%"></stop>
        </linearGradient>
        <polygon id="path-38" points="225.266059 104.585667 290.260169 368.531333 0.752161017 0.0606666667"></polygon>
        <linearGradient x1="90.3044264%" y1="90.477903%" x2="28.2565047%" y2="-9.20377159%" id="linearGradient-40">
            <stop stop-color="#261F1F" offset="0%"></stop>
            <stop stop-color="#211C1C" offset="100%"></stop>
        </linearGradient>
        <polygon id="path-41" points="0.837407407 320.506154 131.768519 285.196154 131.768519 118.066269 2.11814815 0.654346154"></polygon>
        <linearGradient x1="36.5419467%" y1="53.3738028%" x2="71.5790795%" y2="30.477022%" id="linearGradient-43">
            <stop stop-color="#1A1A1A" offset="0%"></stop>
            <stop stop-color="#000000" offset="100%"></stop>
        </linearGradient>
        <polygon id="path-44" points="284.666883 0.654346154 283.371429 320.506154 0.851298701 48.9031154"></polygon>
        <linearGradient x1="17.8719872%" y1="63.550992%" x2="96.6260628%" y2="48.5869348%" id="linearGradient-46">
            <stop stop-color="#242626" offset="0%"></stop>
            <stop stop-color="#040504" offset="100%"></stop>
        </linearGradient>
        <polygon id="path-47" points="0 24.0746667 0 149.406 15.7123622 184.852 156.987638 0.185"></polygon>
        <linearGradient x1="0.900071008%" y1="81.7547392%" x2="66.2740752%" y2="-17.9362579%" id="linearGradient-49">
            <stop stop-color="#0D0D0D" offset="0%"></stop>
            <stop stop-color="#1A1A1A" offset="100%"></stop>
        </linearGradient>
        <polygon id="path-50" points="355.95 0.0353488372 0.877058824 210.852093 418.838824 101.17907"></polygon>
        <linearGradient x1="-3.46683257%" y1="56.0305705%" x2="96.5858389%" y2="42.8969634%" id="linearGradient-52">
            <stop stop-color="#080808" offset="0%"></stop>
            <stop stop-color="#000000" offset="100%"></stop>
        </linearGradient>
        <polygon id="path-53" points="355.95 0.0353488372 0.877058824 210.852093 142.046471 26.3011628"></polygon>
        <linearGradient x1="16.9183144%" y1="75.3380992%" x2="56.8189177%" y2="44.6233854%" id="linearGradient-55">
            <stop stop-color="#2D2D2A" offset="0%"></stop>
            <stop stop-color="#000000" offset="100%"></stop>
        </linearGradient>
        <polygon id="path-56" points="2.07709091 0.247179487 0.0741818182 202.56359 202.899636 240.443846"></polygon>
        <linearGradient x1="20.636698%" y1="43.478424%" x2="92.0483323%" y2="59.1451608%" id="linearGradient-58">
            <stop stop-color="#1F1F1F" offset="0%"></stop>
            <stop stop-color="#171717" offset="100%"></stop>
        </linearGradient>
        <polygon id="path-59" points="64.6075472 0.246341463 62.6207547 201.876829 0.183962264 100.802927"></polygon>
        <linearGradient x1="62.0550623%" y1="85.710518%" x2="52.0779261%" y2="35.581347%" id="linearGradient-61">
            <stop stop-color="#111111" offset="0%"></stop>
            <stop stop-color="#000000" offset="100%"></stop>
        </linearGradient>
        <polygon id="path-62" points="196.5075 0.876439169 0.1354375 315.45638 157.267562 414.851988"></polygon>
        <linearGradient x1="70.3197936%" y1="12.0961504%" x2="47.6854363%" y2="87.9067009%" id="linearGradient-64">
            <stop stop-color="#151112" offset="0%"></stop>
            <stop stop-color="#262123" offset="100%"></stop>
        </linearGradient>
        <polygon id="path-65" points="398.505882 0.87640625 201.488824 315.444531 0.84 75.54375"></polygon>
        <linearGradient x1="68.626186%" y1="3.06441321%" x2="18.7901323%" y2="65.490495%" id="linearGradient-67">
            <stop stop-color="#151517" offset="0%"></stop>
            <stop stop-color="#000000" offset="100%"></stop>
        </linearGradient>
        <polygon id="path-68" points="340.097143 0.766073298 0.901492063 234.85089 388.790063 219.776545"></polygon>
        <linearGradient x1="-1.0944489%" y1="51.042704%" x2="98.9042025%" y2="48.7158087%" id="linearGradient-70">
            <stop stop-color="#000000" offset="0%"></stop>
            <stop stop-color="#000000" offset="100%"></stop>
        </linearGradient>
        <polygon id="path-71" points="340.258696 180.990861 0.90192029 414.851988 40.2775362 0.876439169"></polygon>
        <linearGradient x1="65.9027576%" y1="11.9771458%" x2="-1.47341165%" y2="68.1547737%" id="linearGradient-73">
            <stop stop-color="#141415" offset="0%"></stop>
            <stop stop-color="#0E0E10" offset="100%"></stop>
        </linearGradient>
        <polygon id="path-74" points="168.917268 0.739534884 0.0243414634 211.839767 251.901268 37.2355814"></polygon>
        <linearGradient x1="79.2853236%" y1="66.7264187%" x2="46.4573458%" y2="54.7271699%" id="linearGradient-76">
            <stop stop-color="#080808" offset="0%"></stop>
            <stop stop-color="#1C1C1C" offset="100%"></stop>
        </linearGradient>
        <polygon id="path-77" points="217.605876 8.15730337 49.0561582 219.839326 0.492655367 0.766292135"></polygon>
        <linearGradient x1="69.3455051%" y1="89.4455379%" x2="47.2083558%" y2="-10.5189969%" id="linearGradient-79">
            <stop stop-color="#110E10" offset="0%"></stop>
            <stop stop-color="#1A181A" offset="100%"></stop>
        </linearGradient>
        <polygon id="path-80" points="0.127 28.7602174 48 56.3432609 48 0.793043478"></polygon>
        <linearGradient x1="30.9524465%" y1="12.7447803%" x2="455.371849%" y2="294.057111%" id="linearGradient-82">
            <stop stop-color="#080808" offset="0%"></stop>
            <stop stop-color="#1C1C1C" offset="100%"></stop>
        </linearGradient>
        <polygon id="path-83" points="0.837407407 35.3864407 83.6422222 72.0225424 131.768519 44.0969492 131.768519 0"></polygon>
        <linearGradient x1="5.54433597%" y1="61.2187215%" x2="214.250596%" y2="30.440741%" id="linearGradient-85">
            <stop stop-color="#010101" offset="0%"></stop>
            <stop stop-color="#000000" offset="100%"></stop>
        </linearGradient>
        <polygon id="path-86" points="0 110.384615 50.8980952 91.3446154 0 0.0953846154"></polygon>
        <linearGradient x1="-94.6420624%" y1="157.757957%" x2="53.0656718%" y2="38.9767615%" id="linearGradient-88">
            <stop stop-color="#0D0D0D" offset="0%"></stop>
            <stop stop-color="#000000" offset="100%"></stop>
        </linearGradient>
        <polygon id="path-89" points="0.875488722 0.0886597938 35.8950376 32.4391753 327.087519 118.901031"></polygon>
        <linearGradient x1="99.1345009%" y1="57.5090271%" x2="-0.959651484%" y2="44.3406823%" id="linearGradient-91">
            <stop stop-color="#0D0D0D" offset="0%"></stop>
            <stop stop-color="#1A1A1A" offset="100%"></stop>
        </linearGradient>
        <polygon id="path-92" points="0 23.91 15.7361905 59.4568421 50.8980952 91.8002632 0 0.100789474"></polygon>
        <linearGradient x1="61.5714313%" y1="103.863369%" x2="-1.1948707%" y2="-98.1689452%" id="linearGradient-94">
            <stop stop-color="#0D0D0D" offset="0%"></stop>
            <stop stop-color="#000000" offset="100%"></stop>
        </linearGradient>
        <polygon id="path-95" points="91.3554491 0.112903226 0.320718563 228.901075 205.185868 201.066129"></polygon>
        <linearGradient x1="57.6960931%" y1="108.598811%" x2="12.86327%" y2="20.9440909%" id="linearGradient-97">
            <stop stop-color="#080808" offset="0%"></stop>
            <stop stop-color="#000000" offset="100%"></stop>
        </linearGradient>
        <polygon id="path-98" points="418.838824 0.112903226 327.674118 228.901075 0.877058824 110.141935"></polygon>
        <linearGradient x1="61.5920556%" y1="26.5529375%" x2="39.7085095%" y2="56.3665655%" id="linearGradient-100">
            <stop stop-color="#0D0D0D" offset="0%"></stop>
            <stop stop-color="#000000" offset="100%"></stop>
        </linearGradient>
        <polygon id="path-101" points="88.9027397 0.678571429 0.419178082 163.362987 81.1849315 189.592857"></polygon>
        <linearGradient x1="45.9333624%" y1="40.3132804%" x2="65.9724564%" y2="54.0964511%" id="linearGradient-103">
            <stop stop-color="#141411" offset="0%"></stop>
            <stop stop-color="#000000" offset="100%"></stop>
        </linearGradient>
        <polygon id="path-104" points="202.899636 37.8603659 114.165818 200.273293 0.0741818182 0.108536585"></polygon>
        <linearGradient x1="57.7717879%" y1="-3.11410122%" x2="13.7470741%" y2="75.7608577%" id="linearGradient-106">
            <stop stop-color="#0A0B08" offset="0%"></stop>
            <stop stop-color="#000100" offset="100%"></stop>
        </linearGradient>
        <polygon id="path-107" points="165.666 100.021429 0.0514814815 189.592857 7.79533333 0.678571429"></polygon>
        <linearGradient x1="70.6437507%" y1="14.9598935%" x2="-6.3547255%" y2="62.0649491%" id="linearGradient-109">
            <stop stop-color="#151515" offset="0%"></stop>
            <stop stop-color="#282828" offset="100%"></stop>
        </linearGradient>
        <polygon id="path-110" points="151.763289 0.0760526316 0.0617777778 139.628947 277.604622 20.8055263"></polygon>
        <linearGradient x1="-4.86025865%" y1="56.8730212%" x2="95.2651939%" y2="35.4957842%" id="linearGradient-112">
            <stop stop-color="#020202" offset="0%"></stop>
            <stop stop-color="#000000" offset="100%"></stop>
        </linearGradient>
        <polygon id="path-113" points="388.790063 0.0760526316 237.166508 139.628947 0.901492063 15.1655263"></polygon>
        <linearGradient x1="72.3407564%" y1="48.4749452%" x2="11.4396613%" y2="37.0270832%" id="linearGradient-115">
            <stop stop-color="#1A1A17" offset="0%"></stop>
            <stop stop-color="#000000" offset="100%"></stop>
        </linearGradient>
        <polygon id="path-116" points="251.901268 0.258867925 125.722146 195.543899 0.0243414634 174.883774"></polygon>
        <linearGradient x1="56.6624063%" y1="47.6889602%" x2="6.80823901%" y2="41.3869722%" id="linearGradient-118">
            <stop stop-color="#020202" offset="0%"></stop>
            <stop stop-color="#000000" offset="100%"></stop>
        </linearGradient>
        <polygon id="path-119" points="48 216.950682 48 27.7044886 0.127 0.258920455"></polygon>
        <linearGradient x1="57.2307092%" y1="7.45776216%" x2="38.2226423%" y2="119.293551%" id="linearGradient-121">
            <stop stop-color="#020202" offset="0%"></stop>
            <stop stop-color="#000000" offset="100%"></stop>
        </linearGradient>
        <polygon id="path-122" points="0 63.06608 0 307.10064 174.926056 274.63744 50.6637324 0.03696"></polygon>
        <linearGradient x1="-13.9437005%" y1="66.9400084%" x2="61.3140262%" y2="42.6196718%" id="linearGradient-124">
            <stop stop-color="#0D0D0D" offset="0%"></stop>
            <stop stop-color="#000000" offset="100%"></stop>
        </linearGradient>
        <polygon id="path-125" points="167.183771 0.135064935 0.160228571 188.888961 214.3952 132.074026"></polygon>
        <linearGradient x1="99.4013816%" y1="28.0233432%" x2="21.081105%" y2="105.372427%" id="linearGradient-127">
            <stop stop-color="#111114" offset="0%"></stop>
            <stop stop-color="#000000" offset="100%"></stop>
        </linearGradient>
        <polygon id="path-128" points="291.08827 86.2242152 124.364895 274.889013 0.135527426 0.0369955157"></polygon>
        <linearGradient x1="-11.0575651%" y1="41.0083941%" x2="89.0053525%" y2="68.7765116%" id="linearGradient-130">
            <stop stop-color="#0D0D0D" offset="0%"></stop>
            <stop stop-color="#000000" offset="100%"></stop>
        </linearGradient>
        <polygon id="path-131" points="158.198837 0.507338129 0.628604651 160.690072 147.685116 171.319424 158.186512 0.507338129"></polygon>
        <linearGradient x1="47.1359152%" y1="97.3085142%" x2="52.8598519%" y2="-2.69348884%" id="linearGradient-133">
            <stop stop-color="#0E0E0E" offset="0%"></stop>
            <stop stop-color="#000000" offset="100%"></stop>
        </linearGradient>
        <polygon id="path-134" points="205.198204 0.504615385 47.5033533 159.827692 0.320718563 28.2092308 205.185868 0.504615385"></polygon>
        <linearGradient x1="4.4446529%" y1="55.950159%" x2="104.461954%" y2="45.519863%" id="linearGradient-136">
            <stop stop-color="#212121" offset="0%"></stop>
            <stop stop-color="#000000" offset="100%"></stop>
        </linearGradient>
        <polygon id="path-137" points="93.4581065 0.34551532 207.196154 228.768162 0.224319527 442.543426"></polygon>
        <polygon id="path-139" points="27.1111111 0.0863601533 0.037037037 249.876935 199.728395 321.284444"></polygon>
        <polygon id="path-141" points="214.3952 0.0612075472 207.544914 325.605132 0.160228571 56.8851698"></polygon>
    </defs>
    <g id="User-Interface" stroke="none" stroke-width="1" fill="none" fill-rule="evenodd" opacity="0.02">
        <g id="PROJECTS" transform="translate(0.000000, -363.000000)">
            <g id="Pattern-B" transform="translate(741.000000, 654.000000) rotate(-180.000000) translate(-741.000000, -654.000000) ">
                <g id="Group-24" transform="translate(230.500000, 465.616986)">
                    <g id="Group-8" transform="translate(433.284258, 0.000000)">
                        <mask id="mask-2" fill="white">
                            <use xlink:href="#path-1"></use>
                        </mask>
                        <g id="Clip-7"></g>
                    </g>
                    <g id="Group-11" transform="translate(140.724802, 263.970674)">
                        <mask id="mask-4" fill="white">
                            <use xlink:href="#path-3"></use>
                        </mask>
                        <g id="Clip-10"></g>
                    </g>
                    <g id="Group-14" transform="translate(663.887882, 158.029326)">
                        <mask id="mask-6" fill="white">
                            <use xlink:href="#path-5"></use>
                        </mask>
                        <g id="Clip-13"></g>
                    </g>
                    <g id="Group-20" transform="translate(293.793884, 130.633431)">
                        <mask id="mask-8" fill="white">
                            <use xlink:href="#path-7"></use>
                        </mask>
                        <g id="Clip-19"></g>
                    </g>
                    <g id="Group-23" transform="translate(655.481314, 411.123167)">
                        <mask id="mask-10" fill="white">
                            <use xlink:href="#path-9"></use>
                        </mask>
                        <g id="Clip-22"></g>
                    </g>
                </g>
                <g id="Group-75" transform="translate(0.500000, 264.616986)">
                    <mask id="mask-12" fill="white">
                        <use xlink:href="#path-11"></use>
                    </mask>
                    <g id="Clip-74"></g>
                    <polygon id="Fill-73" fill="url(#linearGradient-13)" mask="url(#mask-12)" points="0 82.1544697 156.987638 161.950379 0 0.728560606"></polygon>
                </g>
                <g id="Group-78" transform="translate(119.500000, 99.616986)">
                    <mask id="mask-15" fill="white">
                        <use xlink:href="#path-14"></use>
                    </mask>
                    <g id="Clip-77"></g>
                    <polygon id="Fill-76" fill="url(#linearGradient-16)" mask="url(#mask-15)" points="0.0110679612 0.394586466 38.4439806 326.95188 251.951942 300.674887"></polygon>
                </g>
                <g id="Group-81" transform="translate(0.500000, 80.616986)">
                    <mask id="mask-18" fill="white">
                        <use xlink:href="#path-17"></use>
                    </mask>
                    <g id="Clip-80"></g>
                    <polygon id="Fill-79" fill="url(#linearGradient-19)" mask="url(#mask-18)" points="0 184.725018 156.987638 345.950356 118.454646 18.9059431 0 0.740925267"></polygon>
                </g>
                <g id="Group-84" transform="translate(287.500000, 132.616986)">
                    <mask id="mask-21" fill="white">
                        <use xlink:href="#path-20"></use>
                    </mask>
                    <g id="Clip-83"></g>
                    <polygon id="Fill-82" fill="url(#linearGradient-22)" mask="url(#mask-21)" points="0.640330579 0.580460829 83.9202479 267.802396 148.60595 166.975115"></polygon>
                </g>
                <g id="Group-87" transform="translate(119.500000, 99.616986)">
                    <mask id="mask-24" fill="white">
                        <use xlink:href="#path-23"></use>
                    </mask>
                    <g id="Clip-86"></g>
                    <polygon id="Fill-85" fill="url(#linearGradient-25)" mask="url(#mask-24)" points="168.563495 33.8871721 251.951942 300.802623 0.0110679612 0.394754098"></polygon>
                </g>
                <g id="Group-90" transform="translate(435.500000, 222.616986)">
                    <mask id="mask-27" fill="white">
                        <use xlink:href="#path-26"></use>
                    </mask>
                    <g id="Clip-89"></g>
                    <polygon id="Fill-88" fill="url(#linearGradient-28)" mask="url(#mask-27)" points="228.739412 0.940952381 0.84 77.0095238 398.505882 2.11714286"></polygon>
                </g>
                <g id="Group-93" transform="translate(287.500000, 132.616986)">
                    <mask id="mask-30" fill="white">
                        <use xlink:href="#path-29"></use>
                    </mask>
                    <g id="Clip-92"></g>
                    <polygon id="Fill-91" fill="url(#linearGradient-31)" mask="url(#mask-30)" points="376.974706 91.1152941 149.075294 167.011765 0.642352941 0.580588235"></polygon>
                </g>
                <g id="Group-96" transform="translate(832.500000, 36.616986)">
                    <mask id="mask-33" fill="white">
                        <use xlink:href="#path-32"></use>
                    </mask>
                    <g id="Clip-95"></g>
                    <polygon id="Fill-94" fill="url(#linearGradient-34)" mask="url(#mask-33)" points="10.6213525 0.0606666667 0.740163934 188.575667 300.259836 368.531333"></polygon>
                </g>
                <g id="Group-102" transform="translate(1067.500000, 140.616986)">
                    <mask id="mask-36" fill="white">
                        <use xlink:href="#path-35"></use>
                    </mask>
                    <g id="Clip-101"></g>
                    <polygon id="Fill-100" fill="url(#linearGradient-37)" mask="url(#mask-36)" points="0.852 0.753529412 65.9373913 265.118824 283.60487 272.505882"></polygon>
                </g>
                <g id="Group-105" transform="translate(842.500000, 36.616986)">
                    <mask id="mask-39" fill="white">
                        <use xlink:href="#path-38"></use>
                    </mask>
                    <g id="Clip-104"></g>
                    <polygon id="Fill-103" fill="url(#linearGradient-40)" mask="url(#mask-39)" points="225.266059 104.585667 290.260169 368.531333 0.752161017 0.0606666667"></polygon>
                </g>
                <g id="Group-108" transform="translate(1349.500000, 92.616986)">
                    <mask id="mask-42" fill="white">
                        <use xlink:href="#path-41"></use>
                    </mask>
                    <g id="Clip-107"></g>
                    <polygon id="Fill-106" fill="url(#linearGradient-43)" mask="url(#mask-42)" points="0.837407407 320.506154 131.768519 285.196154 131.768519 118.066269 2.11814815 0.654346154"></polygon>
                </g>
                <g id="Group-111" transform="translate(1067.500000, 92.616986)">
                    <mask id="mask-45" fill="white">
                        <use xlink:href="#path-44"></use>
                    </mask>
                    <g id="Clip-110"></g>
                    <polygon id="Fill-109" fill="url(#linearGradient-46)" mask="url(#mask-45)" points="284.666883 0.654346154 283.371429 320.506154 0.851298701 48.9031154"></polygon>
                </g>
                <g id="Group-117" transform="translate(0.500000, 426.616986)">
                    <mask id="mask-48" fill="white">
                        <use xlink:href="#path-47"></use>
                    </mask>
                    <g id="Clip-116"></g>
                    <polygon id="Fill-115" fill="url(#linearGradient-49)" mask="url(#mask-48)" points="0 24.0746667 0 149.406 15.7123622 184.852 156.987638 0.185"></polygon>
                </g>
                <g id="Group-120" transform="translate(15.500000, 400.616986)">
                    <mask id="mask-51" fill="white">
                        <use xlink:href="#path-50"></use>
                    </mask>
                    <g id="Clip-119"></g>
                    <polygon id="Fill-118" fill="url(#linearGradient-52)" mask="url(#mask-51)" points="355.95 0.0353488372 0.877058824 210.852093 418.838824 101.17907"></polygon>
                </g>
                <g id="Group-123" transform="translate(15.500000, 400.616986)">
                    <mask id="mask-54" fill="white">
                        <use xlink:href="#path-53"></use>
                    </mask>
                    <g id="Clip-122"></g>
                    <polygon id="Fill-121" fill="url(#linearGradient-55)" mask="url(#mask-54)" points="355.95 0.0353488372 0.877058824 210.852093 142.046471 26.3011628"></polygon>
                </g>
                <g id="Group-126" transform="translate(433.500000, 299.616986)">
                    <mask id="mask-57" fill="white">
                        <use xlink:href="#path-56"></use>
                    </mask>
                    <g id="Clip-125"></g>
                    <polygon id="Fill-124" fill="url(#linearGradient-58)" mask="url(#mask-57)" points="2.07709091 0.247179487 0.0741818182 202.56359 202.899636 240.443846"></polygon>
                </g>
                <g id="Group-129" transform="translate(371.500000, 299.616986)">
                    <mask id="mask-60" fill="white">
                        <use xlink:href="#path-59"></use>
                    </mask>
                    <g id="Clip-128"></g>
                    <polygon id="Fill-127" fill="url(#linearGradient-61)" mask="url(#mask-60)" points="64.6075472 0.246341463 62.6207547 201.876829 0.183962264 100.802927"></polygon>
                </g>
                <g id="Group-132" transform="translate(636.500000, 224.616986)">
                    <mask id="mask-63" fill="white">
                        <use xlink:href="#path-62"></use>
                    </mask>
                    <g id="Clip-131"></g>
                    <polygon id="Fill-130" fill="url(#linearGradient-64)" mask="url(#mask-63)" points="196.5075 0.876439169 0.1354375 315.45638 157.267562 414.851988"></polygon>
                </g>
                <g id="Group-135" transform="translate(435.500000, 224.616986)">
                    <mask id="mask-66" fill="white">
                        <use xlink:href="#path-65"></use>
                    </mask>
                    <g id="Clip-134"></g>
                    <polygon id="Fill-133" fill="url(#linearGradient-67)" mask="url(#mask-66)" points="398.505882 0.87640625 201.488824 315.444531 0.84 75.54375"></polygon>
                </g>
                <g id="Group-138" transform="translate(793.500000, 404.616986)">
                    <mask id="mask-69" fill="white">
                        <use xlink:href="#path-68"></use>
                    </mask>
                    <g id="Clip-137"></g>
                    <polygon id="Fill-136" fill="url(#linearGradient-70)" mask="url(#mask-69)" points="340.097143 0.766073298 0.901492063 234.85089 388.790063 219.776545"></polygon>
                </g>
                <g id="Group-141" transform="translate(792.500000, 224.616986)">
                    <mask id="mask-72" fill="white">
                        <use xlink:href="#path-71"></use>
                    </mask>
                    <g id="Clip-140"></g>
                    <polygon id="Fill-139" fill="url(#linearGradient-73)" mask="url(#mask-72)" points="340.258696 180.990861 0.90192029 414.851988 40.2775362 0.876439169"></polygon>
                </g>
                <g id="Group-144" transform="translate(1181.500000, 411.616986)">
                    <mask id="mask-75" fill="white">
                        <use xlink:href="#path-74"></use>
                    </mask>
                    <g id="Clip-143"></g>
                    <polygon id="Fill-142" fill="url(#linearGradient-76)" mask="url(#mask-75)" points="168.917268 0.739534884 0.0243414634 211.839767 251.901268 37.2355814"></polygon>
                </g>
                <g id="Group-147" transform="translate(1132.500000, 404.616986)">
                    <mask id="mask-78" fill="white">
                        <use xlink:href="#path-77"></use>
                    </mask>
                    <g id="Clip-146"></g>
                    <polygon id="Fill-145" fill="url(#linearGradient-79)" mask="url(#mask-78)" points="217.605876 8.15730337 49.0561582 219.839326 0.492655367 0.766292135"></polygon>
                </g>
                <g id="Group-150" transform="translate(1433.500000, 420.616986)">
                    <mask id="mask-81" fill="white">
                        <use xlink:href="#path-80"></use>
                    </mask>
                    <g id="Clip-149"></g>
                    <polygon id="Fill-148" fill="url(#linearGradient-82)" mask="url(#mask-81)" points="0.127 28.7602174 48 56.3432609 48 0.793043478"></polygon>
                </g>
                <g id="Group-153" transform="translate(1349.500000, 377.616986)">
                    <mask id="mask-84" fill="white">
                        <use xlink:href="#path-83"></use>
                    </mask>
                    <g id="Clip-152"></g>
                    <polygon id="Fill-151" fill="url(#linearGradient-85)" mask="url(#mask-84)" points="0.837407407 35.3864407 83.6422222 72.0225424 131.768519 44.0969492 131.768519 0"></polygon>
                </g>
                <g id="Group-156" transform="translate(0.500000, 552.616986)">
                    <mask id="mask-87" fill="white">
                        <use xlink:href="#path-86"></use>
                    </mask>
                    <g id="Clip-155"></g>
                    <polygon id="Fill-154" fill="url(#linearGradient-88)" mask="url(#mask-87)" points="0 110.384615 50.8980952 91.3446154 0 0.0953846154"></polygon>
                </g>
                <g id="Group-159" transform="translate(15.500000, 611.616986)">
                    <mask id="mask-90" fill="white">
                        <use xlink:href="#path-89"></use>
                    </mask>
                    <g id="Clip-158"></g>
                    <polygon id="Fill-157" fill="url(#linearGradient-91)" mask="url(#mask-90)" points="0.875488722 0.0886597938 35.8950376 32.4391753 327.087519 118.901031"></polygon>
                </g>
                <g id="Group-162" transform="translate(0.500000, 552.616986)">
                    <mask id="mask-93" fill="white">
                        <use xlink:href="#path-92"></use>
                    </mask>
                    <g id="Clip-161"></g>
                    <polygon id="Fill-160" fill="url(#linearGradient-94)" mask="url(#mask-93)" points="0 23.91 15.7361905 59.4568421 50.8980952 91.8002632 0 0.100789474"></polygon>
                </g>
                <g id="Group-165" transform="translate(342.500000, 501.616986)">
                    <mask id="mask-96" fill="white">
                        <use xlink:href="#path-95"></use>
                    </mask>
                    <g id="Clip-164"></g>
                    <polygon id="Fill-163" fill="url(#linearGradient-97)" mask="url(#mask-96)" points="91.3554491 0.112903226 0.320718563 228.901075 205.185868 201.066129"></polygon>
                </g>
                <g id="Group-168" transform="translate(15.500000, 501.616986)">
                    <mask id="mask-99" fill="white">
                        <use xlink:href="#path-98"></use>
                    </mask>
                    <g id="Clip-167"></g>
                    <polygon id="Fill-166" fill="url(#linearGradient-100)" mask="url(#mask-99)" points="418.838824 0.112903226 327.674118 228.901075 0.877058824 110.141935"></polygon>
                </g>
                <g id="Group-171" transform="translate(547.500000, 538.616986)">
                    <mask id="mask-102" fill="white">
                        <use xlink:href="#path-101"></use>
                    </mask>
                    <g id="Clip-170"></g>
                    <polygon id="Fill-169" fill="url(#linearGradient-103)" mask="url(#mask-102)" points="88.9027397 0.678571429 0.419178082 163.362987 81.1849315 189.592857"></polygon>
                </g>
                <g id="Group-174" transform="translate(433.500000, 501.616986)">
                    <mask id="mask-105" fill="white">
                        <use xlink:href="#path-104"></use>
                    </mask>
                    <g id="Clip-173"></g>
                    <polygon id="Fill-172" fill="url(#linearGradient-106)" mask="url(#mask-105)" points="202.899636 37.8603659 114.165818 200.273293 0.0741818182 0.108536585"></polygon>
                </g>
                <g id="Group-177" transform="translate(628.500000, 538.616986)">
                    <mask id="mask-108" fill="white">
                        <use xlink:href="#path-107"></use>
                    </mask>
                    <g id="Clip-176"></g>
                    <polygon id="Fill-175" fill="url(#linearGradient-109)" mask="url(#mask-108)" points="165.666 100.021429 0.0514814815 189.592857 7.79533333 0.678571429"></polygon>
                </g>
                <g id="Group-180" transform="translate(1029.500000, 623.616986)">
                    <mask id="mask-111" fill="white">
                        <use xlink:href="#path-110"></use>
                    </mask>
                    <g id="Clip-179"></g>
                    <polygon id="Fill-178" fill="url(#linearGradient-112)" mask="url(#mask-111)" points="151.763289 0.0760526316 0.0617777778 139.628947 277.604622 20.8055263"></polygon>
                </g>
                <g id="Group-183" transform="translate(793.500000, 623.616986)">
                    <mask id="mask-114" fill="white">
                        <use xlink:href="#path-113"></use>
                    </mask>
                    <g id="Clip-182"></g>
                    <polygon id="Fill-181" fill="url(#linearGradient-115)" mask="url(#mask-114)" points="388.790063 0.0760526316 237.166508 139.628947 0.901492063 15.1655263"></polygon>
                </g>
                <g id="Group-186" transform="translate(1181.500000, 448.616986)">
                    <mask id="mask-117" fill="white">
                        <use xlink:href="#path-116"></use>
                    </mask>
                    <g id="Clip-185"></g>
                    <polygon id="Fill-184" fill="url(#linearGradient-118)" mask="url(#mask-117)" points="251.901268 0.258867925 125.722146 195.543899 0.0243414634 174.883774"></polygon>
                </g>
                <g id="Group-189" transform="translate(1433.500000, 448.616986)">
                    <mask id="mask-120" fill="white">
                        <use xlink:href="#path-119"></use>
                    </mask>
                    <g id="Clip-188"></g>
                    <polygon id="Fill-187" fill="url(#linearGradient-121)" mask="url(#mask-120)" points="48 216.950682 48 27.7044886 0.127 0.258920455"></polygon>
                </g>
                <g id="Group-192" transform="translate(1.500000, 644.616986)">
                    <mask id="mask-123" fill="white">
                        <use xlink:href="#path-122"></use>
                    </mask>
                    <g id="Clip-191"></g>
                    <polygon id="Fill-190" fill="url(#linearGradient-124)" mask="url(#mask-123)" points="0 63.06608 0 307.10064 174.926056 274.63744 50.6637324 0.03696"></polygon>
                </g>
                <g id="Group-195" transform="translate(175.500000, 729.616986)">
                    <mask id="mask-126" fill="white">
                        <use xlink:href="#path-125"></use>
                    </mask>
                    <g id="Clip-194"></g>
                    <polygon id="Fill-193" fill="url(#linearGradient-127)" mask="url(#mask-126)" points="167.183771 0.135064935 0.160228571 188.888961 214.3952 132.074026"></polygon>
                </g>
                <g id="Group-198" transform="translate(51.500000, 643.616986)">
                    <mask id="mask-129" fill="white">
                        <use xlink:href="#path-128"></use>
                    </mask>
                    <g id="Clip-197"></g>
                    <polygon id="Fill-196" fill="url(#linearGradient-130)" mask="url(#mask-129)" points="291.08827 86.2242152 124.364895 274.889013 0.135527426 0.0369955157"></polygon>
                </g>
                <g id="Group-201" transform="translate(389.500000, 701.616986)">
                    <mask id="mask-132" fill="white">
                        <use xlink:href="#path-131"></use>
                    </mask>
                    <g id="Clip-200"></g>
                    <polygon id="Fill-199" fill="url(#linearGradient-133)" mask="url(#mask-132)" points="158.198837 0.507338129 0.628604651 160.690072 147.685116 171.319424 158.186512 0.507338129"></polygon>
                </g>
                <g id="Group-204" transform="translate(342.500000, 701.616986)">
                    <mask id="mask-135" fill="white">
                        <use xlink:href="#path-134"></use>
                    </mask>
                    <g id="Clip-203"></g>
                    <polygon id="Fill-202" fill="url(#linearGradient-136)" mask="url(#mask-135)" points="205.198204 0.504615385 47.5033533 159.827692 0.320718563 28.2092308 205.185868 0.504615385"></polygon>
                </g>
                <g id="Group-207" transform="translate(1214.500000, 637.616986)">
                    <mask id="mask-138" fill="white">
                        <use xlink:href="#path-137"></use>
                    </mask>
                    <g id="Clip-206"></g>
                </g>
                <g id="Group-210" transform="translate(767.500000, 638.616986)">
                    <mask id="mask-140" fill="white">
                        <use xlink:href="#path-139"></use>
                    </mask>
                    <g id="Clip-209"></g>
                </g>
                <g id="Group-213" transform="translate(175.500000, 861.616986)">
                    <mask id="mask-142" fill="white">
                        <use xlink:href="#path-141"></use>
                    </mask>
                    <g id="Clip-212"></g>
                </g>
            </g>
        </g>
    </g>
</svg>