{
  "extends": "tslint:recommended",
  "rulesDirectory": [
    "codelyzer"
  ],
  "rules": {
    "directive-selector": [
      true,
      "attribute",
      [
        ""
      ],
      "camelCase"
    ],
    "component-selector": [
      true,
      "element",
      [
        "app"
      ],
      "kebab-case"
    ],
    "align": [
      true,
      "statements"
    ],
    "array-type": [
      true,
      "array"
    ],
    "arrow-parens": true,
    "class-name": true,
    "curly": true,
    "eofline": true,
    "indent": [
      true,
      "spaces"
    ],
    "label-position": true,
    "deprecation": {
      "severity": "warn"
    },
    "import-blacklist": [
      true,
      "rxjs/Rx"
    ],
    "interface-name": false,
    "max-classes-per-file": false,
    "max-line-length": [
      true,
      150
    ],
    "member-access": false,
    "member-ordering": [
      true,
      {
        "order": [
          "private-static-field",
          "protected-static-field",
          "public-static-field",
          "private-instance-field",
          "protected-instance-field",
          "public-instance-field",
          "constructor",
          "public-static-method",
          "protected-static-method",
          "private-static-method",
          "public-instance-method",
          "protected-instance-method",
          "private-instance-method"
        ]
      }
    ],
    "no-consecutive-blank-lines": true,
    "new-parens": true,
    "no-console": [
      false,
      "assert",
      "count",
      "debug",
      "dir",
      "dirxml",
      "error",
      "group",
      "groupCollapsed",
      "groupEnd",
      "info",
      "log",
      "profile",
      "profileEnd",
      "table",
      "time",
      "timeEnd",
      "timeStamp",
      "trace",
      "warn"
    ],
    "no-empty": false,
    "no-angle-bracket-type-assertion": false,
    "no-any": false,
    "no-arg": true,
    "no-bitwise": true,
    "no-conditional-assignment": true,
    "no-construct": true,
    "no-debugger": true,
    "no-internal-module": true,
    "no-invalid-this": true,
    "no-magic-numbers": false,
    "no-default-export": true,
    "no-duplicate-variable": true,
    "no-empty-interface": false,
    "no-eval": true,
    "no-inferrable-types": [
      false,
      "ignore-params"
    ],
    "no-non-null-assertion": true,
    "no-redundant-jsdoc": true,
    "no-switch-case-fall-through": true,
    "no-use-before-declare": true,
    "object-literal-key-quotes": [
      true,
      "as-needed"
    ],
    "object-literal-sort-keys": false,
    "ordered-imports": false,
    "trailing-comma": false,
    "no-output-on-prefix": true,
    "no-namespace": false,
    "no-null-keyword": false,
    "no-reference": true,
    "no-require-imports": true,
    "no-shadowed-variable": true,
    "no-string-literal": false,
    "no-string-throw": true,
    "no-trailing-whitespace": true,
    "no-unused-expression": true,
    "no-var-keyword": true,
    "no-var-requires": true,
    "one-line": [
      true,
      "check-catch",
      "check-finally",
      "check-else",
      "check-open-brace",
      "check-whitespace"
    ],
    "one-variable-per-declaration": [
      true
    ],
    "quotemark": [
      true,
      "single",
      "avoid-escape"
    ],
    "radix": true,
    "semicolon": [
      true,
      "always"
    ],
    "switch-default": true,
    "triple-equals": true,
    "typedef": [
      true,
      "call-signature",
      "parameter",
      "arrow-parameter",
      "property-declaration",
      "variable-declaration",
      "member-variable-declaration"
    ],
    "typedef-whitespace": [
      true,
      {
        "call-signature": "nospace",
        "index-signature": "nospace",
        "parameter": "nospace",
        "property-declaration": "nospace",
        "variable-declaration": "nospace"
      },
      {
        "call-signature": "onespace",
        "index-signature": "onespace",
        "parameter": "onespace",
        "property-declaration": "onespace",
        "variable-declaration": "onespace"
      }
    ],
    "use-isnan": true,
    "variable-name": [
      true,
      "ban-keywords",
      "check-format",
      "allow-leading-underscore",
      "allow-snake-case"
    ],
    "whitespace": [
      true,
      "check-branch",
      "check-decl",
      "check-operator",
      "check-module",
      "check-separator",
      "check-type"
    ]
  }
}